<?xml version="1.0" encoding="UTF-8" standalone="no"?>
<svg
   xmlns:dc="http://purl.org/dc/elements/1.1/"
   xmlns:cc="http://creativecommons.org/ns#"
   xmlns:rdf="http://www.w3.org/1999/02/22-rdf-syntax-ns#"
   xmlns:svg="http://www.w3.org/2000/svg"
   xmlns="http://www.w3.org/2000/svg"
   xmlns:sodipodi="http://sodipodi.sourceforge.net/DTD/sodipodi-0.dtd"
   xmlns:inkscape="http://www.inkscape.org/namespaces/inkscape"
   inkscape:version="1.0 (4035a4fb49, 2020-05-01)"
   height="57.41"
   width="60.011024"
   sodipodi:docname="mis-retiros-icon.svg"
   version="1.1"
   viewBox="0 0 60.011024 57.410002"
   data-name="Layer 1"
   id="Layer_1">
  <metadata
     id="metadata15">
    <rdf:RDF>
      <cc:Work
         rdf:about="">
        <dc:format>image/svg+xml</dc:format>
        <dc:type
           rdf:resource="http://purl.org/dc/dcmitype/StillImage" />
      </cc:Work>
    </rdf:RDF>
  </metadata>
  <sodipodi:namedview
     inkscape:current-layer="Layer_1"
     inkscape:window-maximized="1"
     inkscape:window-y="-11"
     inkscape:window-x="-11"
     inkscape:cy="35.13084"
     inkscape:cx="26.762525"
     inkscape:zoom="3.7443401"
     showgrid="false"
     id="namedview13"
     inkscape:window-height="1046"
     inkscape:window-width="1920"
     inkscape:pageshadow="2"
     inkscape:pageopacity="0"
     guidetolerance="10"
     gridtolerance="10"
     objecttolerance="10"
     borderopacity="1"
     bordercolor="#666666"
     pagecolor="#ffffff" />
  <defs
     id="defs4">
    <style
       id="style2">.cls-1{fill:#e08847;}</style>
  </defs>
  <title
     id="title6">mis-retiros-icon</title>
  <path
     id="path8"
     d="m 41.644247,20.69 a 18.2,18.2 0 0 0 -10.09,3 V 9.31 a 1.42,1.42 0 0 0 -0.08,-0.42 5.12,5.12 0 0 0 0.08,-0.89 c 0,-4.57 -6.78,-8 -15.77,-8 C 6.7942473,0 0.00424732,3.45 0.00424732,8 a 4.28,4.28 0 0 0 0.09,0.87 1.43,1.43 0 0 0 -0.09,0.42 V 18 a 1.42,1.42 0 0 0 0,0.2 1.42,1.42 0 0 0 0,0.2 4.14,4.14 0 0 0 0.09,0.87 1.57,1.57 0 0 0 -0.09,0.43 v 8.6 a 1.3,1.3 0 0 0 0,0.21 1.42,1.42 0 0 0 0,0.2 4.28,4.28 0 0 0 0.09,0.87 1.43,1.43 0 0 0 -0.09,0.42 v 8.65 a 1.42,1.42 0 0 0 0,0.2 1.42,1.42 0 0 0 0,0.2 4.14,4.14 0 0 0 0.09,0.87 1.57,1.57 0 0 0 -0.09,0.43 V 49 a 1.3,1.3 0 0 0 0,0.21 1.42,1.42 0 0 0 0,0.2 c 0,4.57 6.77999998,8 15.77999968,8 6.18,0 11.49,-1.66 14.08,-4.3 a 18.32,18.32 0 0 0 18.84,2.89 1.5534639,1.5534639 0 1 0 -1.19,-2.87 15.26,15.26 0 1 1 7,-5.87 1.553488,1.553488 0 0 0 2.62,1.67 18.37,18.37 0 0 0 -15.49,-28.24 z m -25.86,-17.59 c 7.85,0 12.67,2.9 12.67,4.9 0,2 -4.82,4.91 -12.67,4.91 C 7.9342473,12.91 3.1042473,10.07 3.1042473,8 c 0,-2.07 4.82,-4.9 12.6799997,-4.9 z M 3.1042473,18 v -5.11 c 2.83,1.93 7.3599997,3.11 12.6799997,3.11 5.32,0 9.84,-1.22 12.67,-3.15 v 5.47 c 0,2.06 -4.82,4.92 -12.67,4.92 -7.8499997,0 -12.6799997,-2.82 -12.6799997,-4.88 a 1.42,1.42 0 0 0 0,-0.2 1.42,1.42 0 0 0 0,-0.16 z M 23.664247,42.78 a 25.53,25.53 0 0 1 -7.88,1.22 C 7.9242473,44 3.1042473,41.11 3.1042473,39.05 a 1.42,1.42 0 0 0 0,-0.2 1.42,1.42 0 0 0 0,-0.2 v -5.07 c 2.83,1.93 7.3599997,3.15 12.6799997,3.15 a 29.24,29.24 0 0 0 7.82,-1 18.06,18.06 0 0 0 0.06,7.07 z m 4,8.14 c -1.7,1.76 -6,3.39 -11.87,3.39 -7.8699997,0 -12.6899997,-2.86 -12.6899997,-4.91 a 1.42,1.42 0 0 0 0,-0.2 1.3,1.3 0 0 0 0,-0.21 v -5.06 c 2.83,1.93 7.3599997,3.14 12.6799997,3.14 a 28.69,28.69 0 0 0 8.78,-1.32 18.16,18.16 0 0 0 3.09,5.17 z m -3,-18.73 a 1.33,1.33 0 0 0 -0.34,0.05 24.91,24.91 0 0 1 -8.5,1.38 C 7.9642473,33.62 3.1442473,30.76 3.1442473,28.71 a 1.42,1.42 0 0 0 0,-0.2 1.3,1.3 0 0 0 0,-0.21 v -5.06 c 2.83,1.93 7.3599997,3.14 12.6799997,3.14 5.32,0 9.84,-1.21 12.67,-3.14 v 1.59 a 1.53,1.53 0 0 0 0.42,1.05 18.45,18.45 0 0 0 -4.29,6.31 z"
     class="cls-1" />
  <path
     id="path10"
     d="m 42.564247,38.93 c -1.27,-0.5 -3.39,-1.58 -3.39,-3.19 a 2.59,2.59 0 0 1 0.89,-2 3.23,3.23 0 0 1 2.16,-0.74 3,3 0 0 1 2.89,1.87 1.26,1.26 0 1 0 2.35,-0.87 5.48,5.48 0 0 0 -4.11,-3.37 v -2 a 1.26,1.26 0 1 0 -2.51,0 v 2.07 a 5.68,5.68 0 0 0 -2.47,1.28 5.08,5.08 0 0 0 -1.71,3.81 c 0,1.62 0.86,3.9 5,5.52 1.26,0.5 3.39,1.58 3.39,3.19 a 2.63,2.63 0 0 1 -0.89,1.95 3.23,3.23 0 0 1 -2.16,0.81 3,3 0 0 1 -2.89,-1.87 1.26,1.26 0 0 0 -2.35,0.89 5.5,5.5 0 0 0 4.1,3.37 v 2 a 1.26,1.26 0 1 0 2.51,0 v -2.11 a 5.63,5.63 0 0 0 2.47,-1.28 5.09,5.09 0 0 0 1.72,-3.81 c -0.02,-1.63 -0.88,-3.9 -5,-5.52 z"
     class="cls-1" />
</svg>
